Using ProbReco with the fable package
…
This vignette considers the case of training reconciliation weights using a rolling window of probabilistic forecasts. A simpler method is to simply use predicted values from a single window of data using the function inscoreopt().

The data

The data sim_hierarchy refer to a simulated 7-variable hierarchy. The bottom level series are all simulated from stationary ARMA models. Noise terms are added so that the residual terms on the bottom levels have higher variance than the middle level residuals, which in turn have higher variance than the top level. For details see [@wp].

library(magrittr)
library(dplyr)
library(tidyr)
library(purrr)
library(fable)
library(ProbReco)
set.seed(1983)
sim_hierarchy
#> # A tibble: 1,506 x 8
#>     Time    Tot     A      B      AA     AB     BA    BB
#>    <dbl>  <dbl> <dbl>  <dbl>   <dbl>  <dbl>  <dbl> <dbl>
#>  1     1  4.75   7.25 -2.50    0.242  7.01   -5.47  2.97
#>  2     2  2.18   2.96 -0.780   6.91  -3.95    3.95 -4.73
#>  3     3 -7.22  -9.18  1.96   -6.92  -2.26   -2.89  4.85
#>  4     4 -0.781  3.95 -4.73    3.26   0.691  -2.46 -2.28
#>  5     5 -4.93   2.31 -7.25    3.08  -0.766  -2.95 -4.29
#>  6     6 -9.30  -5.76 -3.53  -10.1    4.39  -10.8   7.23
#>  7     7 -5.71  -5.47 -0.239   1.65  -7.13    3.80 -4.03
#>  8     8 -5.55  -4.87 -0.686   3.14  -8.00    5.21 -5.90
#>  9     9 -7.26  -4.89 -2.37    4.59  -9.47    6.53 -8.90
#> 10    10 -1.37  -3.41  2.05    1.15  -4.57    4.36 -2.31
#> # … with 1,496 more rows
…
